 _____  _                             _         _  ___             _             
|  ___|(_) _ __    __ _  _ __    ___ (_)  __ _ | ||_ _| _ __    __| |  ___ __  __
| |_   | || '_ \  / _` || '_ \  / __|| | / _` || | | | | '_ \  / _` | / _ \\ \/ /
|  _|  | || | | || (_| || | | || (__ | || (_| || | | | | | | || (_| ||  __/ >  < 
|_|    |_||_| |_| \__,_||_| |_| \___||_| \__,_||_||___||_| |_| \__,_| \___|/_/\_\
                                                                                 
